<svg width="50" height="50" viewBox="0 0 50 50" fill="none" xmlns="http://www.w3.org/2000/svg">
<path d="M11.733 29.3209V32.7789V34.1235L11.7531 37.736L10.8499 39.9938H14.689V37.736V32.7789V31.4142" stroke="#333336" stroke-width="1.5" stroke-linejoin="round"/>
<path d="M29.7945 31.4202V32.785V34.1296L29.8146 37.7421L28.9115 39.9999H32.7505V37.7421V32.785V31.4202" stroke="#333336" stroke-width="1.5" stroke-linejoin="round"/>
<path d="M11.5075 11.9964L11.2251 11.3016C11.2418 11.2948 11.2588 11.2886 11.276 11.283L11.5075 11.9964ZM10.1628 21.0852L10.2847 20.3451C10.647 20.4048 10.9128 20.718 10.9128 21.0852H10.1628ZM32.7923 17.3975L32.0944 17.6721L32.7923 17.3975ZM33.7893 21.6061L34.4746 21.9109L33.7893 21.6061ZM25.7798 20.3587L25.0514 20.1801L25.7798 20.3587ZM17.077 31.8143L17.6689 31.3538C17.7713 31.4854 17.827 31.6475 17.827 31.8143H17.077ZM17.0971 37.8459L17.847 37.8415C17.8476 37.9425 17.8278 38.0427 17.7887 38.1359L17.0971 37.8459ZM16.1939 40V40.75C15.9429 40.75 15.7085 40.6244 15.5694 40.4153C15.4304 40.2063 15.4052 39.9415 15.5023 39.71L16.1939 40ZM20.0329 40H20.7829C20.7829 40.4142 20.4472 40.75 20.0329 40.75V40ZM17.077 34.3993L16.327 34.4036V34.3993H17.077ZM20.0329 31.8143H19.2829C19.2829 31.6475 19.3386 31.4854 19.441 31.3538L20.0329 31.8143ZM14.7673 28.3677C14.7673 27.9535 15.1031 27.6177 15.5173 27.6177C15.9316 27.6177 16.2673 27.9535 16.2673 28.3677H14.7673ZM20.1645 28.3677C20.1645 27.9535 20.5003 27.6177 20.9145 27.6177C21.3287 27.6177 21.6645 27.9535 21.6645 28.3677H20.1645ZM15.7945 14.2321L16.4364 13.8442L15.7945 14.2321ZM5.51736 20.32L5.63925 19.58L5.51736 20.32ZM5.39882 16.9339L5.14248 16.2291L5.39882 16.9339ZM37.3105 15.443V16.193V15.443ZM37.3105 16.193L17.756 16.193V14.693L37.3105 14.693V16.193ZM10.9128 24.3055V24.9002H9.41283V24.3055H10.9128ZM15.1527 14.6201C14.7684 13.9843 14.2679 13.3678 13.6816 12.9848C13.1217 12.619 12.4909 12.4657 11.739 12.7098L11.276 11.283C12.5274 10.8769 13.6262 11.1568 14.502 11.729C15.3515 12.284 15.9929 13.1103 16.4364 13.8442L15.1527 14.6201ZM11.79 12.6912C10.734 13.1204 10.2727 13.8207 9.49377 14.8067C8.70987 15.799 7.71639 16.8891 5.65515 17.6387L5.14248 16.2291C6.84299 15.6106 7.62577 14.7515 8.31673 13.8769C9.01267 12.9959 9.72486 11.9114 11.2251 11.3016L11.79 12.6912ZM5.42988 17.9202V19.3333H3.92988V17.9202H5.42988ZM5.63925 19.58L10.2847 20.3451L10.0409 21.8252L5.39547 21.06L5.63925 19.58ZM10.9128 21.0852V24.3055H9.41283V21.0852H10.9128ZM40.5605 20.7421V20.6251H42.0605V20.7421H40.5605ZM40.5605 20.6251V19.443H42.0605V20.6251H40.5605ZM33.9729 16.1702C33.723 16.2333 33.5557 16.3603 33.4773 16.4868C33.4158 16.586 33.3523 16.7721 33.4903 17.123L32.0944 17.6721C31.8101 16.9492 31.855 16.2566 32.2025 15.6962C32.5331 15.163 33.0755 14.8497 33.6057 14.7158L33.9729 16.1702ZM33.4903 17.123C33.594 17.3867 33.744 17.6386 33.932 17.937C34.109 18.218 34.333 18.5596 34.5055 18.9279C34.6847 19.3105 34.8238 19.7499 34.8372 20.2638C34.8506 20.7774 34.7373 21.3202 34.4746 21.9109L33.104 21.3014C33.2914 20.88 33.3444 20.5584 33.3377 20.3029C33.3311 20.0475 33.2637 19.813 33.1472 19.5643C33.0239 19.3012 32.8629 19.0541 32.6628 18.7364C32.4737 18.4362 32.2546 18.0795 32.0944 17.6721L33.4903 17.123ZM34.4746 21.9109C33.9893 23.0023 33.0533 23.6746 32.0255 24.0231C31.0034 24.3696 29.8453 24.4156 28.7871 24.235C27.735 24.0555 26.7043 23.6383 25.9745 22.9783C25.2205 22.2965 24.7706 21.3253 25.0514 20.1801L26.5082 20.5373C26.3854 21.0382 26.5453 21.4721 26.9805 21.8657C27.4399 22.2811 28.1777 22.6093 29.0394 22.7564C29.8949 22.9024 30.7958 22.8561 31.5438 22.6025C32.286 22.3508 32.8312 21.915 33.104 21.3014L34.4746 21.9109ZM25.0514 20.1801C25.5756 18.0423 24.7188 16.5071 23.6307 16.1569L24.0902 14.729C26.2377 15.4201 27.1308 17.9981 26.5082 20.5373L25.0514 20.1801ZM17.7887 38.1359L16.8856 40.29L15.5023 39.71L16.4054 37.5559L17.7887 38.1359ZM16.1939 39.25H20.0329V40.75H16.1939V39.25ZM19.2829 40V37.8459H20.7829V40H19.2829ZM19.2829 37.8459V33.1164H20.7829V37.8459H19.2829ZM17.827 33.1164V34.3993H16.327V33.1164H17.827ZM17.8269 34.3949L17.847 37.8415L16.3471 37.8502L16.327 34.4036L17.8269 34.3949ZM16.327 33.1164V31.8143H17.827V33.1164H16.327ZM19.2829 33.1164V31.8143H20.7829V33.1164H19.2829ZM16.485 32.2749C16.3408 32.0895 16.1913 31.9349 15.9957 31.72C15.8105 31.5164 15.6006 31.2755 15.4116 30.9762C15.0168 30.351 14.7673 29.56 14.7673 28.3677H16.2673C16.2673 29.3296 16.4625 29.831 16.6799 30.1752C16.797 30.3606 16.9351 30.5236 17.1052 30.7104C17.2649 30.886 17.4779 31.1083 17.6689 31.3538L16.485 32.2749ZM19.441 31.3538C19.7607 30.9429 19.9071 30.7133 20.0032 30.3723C20.1095 29.9952 20.1645 29.4393 20.1645 28.3677H21.6645C21.6645 29.4502 21.6139 30.1868 21.447 30.7791C21.2699 31.4075 20.9756 31.8241 20.6249 32.2749L19.441 31.3538ZM20.0329 31.0643H25.7798V32.5643H20.0329V31.0643ZM40.5605 24.3055V20.7421H42.0605V24.3055H40.5605ZM17.756 16.193C16.6126 16.193 15.6763 15.4864 15.1527 14.6201L16.4364 13.8442C16.7597 14.379 17.2623 14.693 17.756 14.693V16.193ZM5.42988 19.3333C5.42988 19.4557 5.51849 19.5601 5.63925 19.58L5.39547 21.06C4.55013 20.9208 3.92988 20.19 3.92988 19.3333H5.42988ZM10.9128 24.9002C10.9128 28.3046 13.6726 31.0643 17.077 31.0643V32.5643C12.8442 32.5643 9.41283 29.133 9.41283 24.9002H10.9128ZM5.65515 17.6387C5.50061 17.695 5.42988 17.8216 5.42988 17.9202H3.92988C3.92988 17.1263 4.45816 16.478 5.14248 16.2291L5.65515 17.6387ZM37.3105 14.693C39.9339 14.693 42.0605 16.8196 42.0605 19.443H40.5605C40.5605 17.648 39.1055 16.193 37.3105 16.193V14.693Z" fill="#333336"/>
<path d="M46.0703 30.9694C46.0703 31.3836 45.7345 31.7194 45.3203 31.7194C44.9061 31.7194 44.5703 31.3836 44.5703 30.9694H46.0703ZM44.5703 30.9694V22.3897H46.0703V30.9694H44.5703ZM44.5703 22.3897C44.5703 20.5594 43.0866 19.0757 41.2563 19.0757V17.5757C43.915 17.5757 46.0703 19.731 46.0703 22.3897H44.5703Z" fill="#333336"/>
<circle r="1.07478" transform="matrix(-1 0 0 1 11.8661 16.2265)" fill="#333336"/>
<path d="M11.9028 11.5642L12.4085 11.0103C12.5745 11.1618 12.6637 11.3798 12.6517 11.6042C12.6397 11.8286 12.5278 12.0358 12.3466 12.1687L11.9028 11.5642ZM9.77532 10.4129L9.80719 11.1623L9.77532 10.4129ZM8.30112 10.0466L7.59265 9.80044C7.66378 9.59571 7.82 9.43175 8.02106 9.35082C8.22212 9.26988 8.44836 9.27989 8.64149 9.37825L8.30112 10.0466ZM9.00658 13.6903L9.45041 14.2949C9.15116 14.5146 8.73624 14.4823 8.47457 14.219L9.00658 13.6903ZM11.3971 12.118C10.7729 11.548 10.6857 11.1249 9.80719 11.1623L9.74344 9.66362C11.4269 9.59201 12.1597 10.7831 12.4085 11.0103L11.3971 12.118ZM9.80719 11.1623C8.91164 11.2004 8.05631 10.7636 7.96075 10.7149L8.64149 9.37825C8.66978 9.39265 8.83044 9.47322 9.05208 9.54602C9.28131 9.62132 9.52942 9.67272 9.74344 9.66362L9.80719 11.1623ZM9.00958 10.2927C8.76284 11.0029 8.70472 12.3225 9.53858 13.1617L8.47457 14.219C7.06326 12.7987 7.25492 10.7726 7.59265 9.80044L9.00958 10.2927ZM8.56275 13.0857L11.459 10.9596L12.3466 12.1687L9.45041 14.2949L8.56275 13.0857Z" fill="#333336"/>
<path d="M13.4615 11.5642L12.9557 11.0103C12.7898 11.1618 12.7005 11.3798 12.7125 11.6042C12.7245 11.8286 12.8365 12.0358 13.0176 12.1687L13.4615 11.5642ZM15.5889 10.4129L15.5571 11.1623L15.5889 10.4129ZM17.0631 10.0466L17.7716 9.80044C17.7005 9.59571 17.5443 9.43175 17.3432 9.35082C17.1421 9.26988 16.9159 9.27989 16.7228 9.37825L17.0631 10.0466ZM16.3577 13.6903L15.9139 14.2949C16.2131 14.5146 16.628 14.4823 16.8897 14.219L16.3577 13.6903ZM13.9672 12.118C14.5914 11.548 14.6785 11.1249 15.5571 11.1623L15.6208 9.66362C13.9374 9.59201 13.2046 10.7831 12.9557 11.0103L13.9672 12.118ZM15.5571 11.1623C16.4526 11.2004 17.3079 10.7636 17.4035 10.7149L16.7228 9.37825C16.6945 9.39265 16.5338 9.47322 16.3122 9.54602C16.083 9.62132 15.8348 9.67272 15.6208 9.66362L15.5571 11.1623ZM16.3547 10.2927C16.6014 11.0029 16.6595 12.3225 15.8257 13.1617L16.8897 14.219C18.301 12.7987 18.1093 10.7726 17.7716 9.80044L16.3547 10.2927ZM16.8015 13.0857L13.9053 10.9596L13.0176 12.1687L15.9139 14.2949L16.8015 13.0857Z" fill="#333336"/>
<path d="M41.1048 28.6747C38.799 29.024 38.0669 27.4647 38.4087 25.7273C38.7505 23.9899 40.5083 23.3061 41.1047 23.1541" stroke="#333336" stroke-width="1.5" stroke-linejoin="round"/>
<path d="M10.1628 21.0895L10.2847 20.3495C10.647 20.4092 10.9128 20.7224 10.9128 21.0895H10.1628ZM35.1394 31.8144L35.7312 31.3537C35.8337 31.4854 35.8894 31.6475 35.8894 31.8144H35.1394ZM35.1595 37.8437L35.9095 37.8393C35.9101 37.9404 35.8902 38.0406 35.8511 38.1338L35.1595 37.8437ZM34.2564 39.997V40.747C34.0053 40.747 33.7709 40.6214 33.6318 40.4123C33.4928 40.2033 33.4676 39.9385 33.5647 39.7069L34.2564 39.997ZM38.0954 39.997H38.8454C38.8454 40.4112 38.5096 40.747 38.0954 40.747V39.997ZM35.1394 34.3984L34.3894 34.4028V34.3984H35.1394ZM32.8298 28.3691C32.8298 27.9548 33.1656 27.6191 33.5798 27.6191C33.994 27.6191 34.3298 27.9548 34.3298 28.3691H32.8298ZM5.51736 20.3244L5.63925 19.5843L5.51736 20.3244ZM5.39891 16.9395L5.65517 17.6443L5.39891 16.9395ZM11.7899 12.6986C10.7339 13.1277 10.2726 13.8277 9.4937 14.8133C8.70979 15.8053 7.71633 16.895 5.65517 17.6443L5.14265 16.2346C6.84315 15.6164 7.6259 14.7576 8.31683 13.8833C9.01278 13.0026 9.72498 11.9186 11.2252 11.309L11.7899 12.6986ZM5.42988 17.9258V19.3377H3.92988V17.9258H5.42988ZM5.63925 19.5843L10.2847 20.3495L10.0409 21.8296L5.39547 21.0644L5.63925 19.5843ZM10.9128 21.0895V24.3084H9.41283V21.0895H10.9128ZM40.5605 25.4086V20.7462H42.0605V25.4086H40.5605ZM40.5605 20.7462V20.6293H42.0605V20.7462H40.5605ZM35.8511 38.1338L34.948 40.2871L33.5647 39.7069L34.4679 37.5536L35.8511 38.1338ZM34.2564 39.247H38.0954V40.747H34.2564V39.247ZM37.3454 39.997V37.8437H38.8454V39.997H37.3454ZM37.3454 37.8437V33.8758H38.8454V37.8437H37.3454ZM35.8894 33.116V34.3984H34.3894V33.116H35.8894ZM35.8894 34.394L35.9095 37.8393L34.4095 37.8481L34.3894 34.4028L35.8894 34.394ZM34.3894 33.116V31.8144H35.8894V33.116H34.3894ZM34.5475 32.275C34.4033 32.0897 34.2538 31.9352 34.0583 31.7204C33.873 31.5169 33.6632 31.276 33.4741 30.9768C33.0793 30.3518 32.8298 29.561 32.8298 28.3691H34.3298C34.3298 29.3304 34.5249 29.8316 34.7422 30.1756C34.8593 30.3609 34.9974 30.5238 35.1675 30.7106C35.3272 30.8861 35.5403 31.1084 35.7312 31.3537L34.5475 32.275ZM21.2964 31.0644H35.1394V32.5644H21.2964V31.0644ZM5.42988 19.3377C5.42988 19.4601 5.51849 19.5644 5.63925 19.5843L5.39547 21.0644C4.55013 20.9252 3.92988 20.1944 3.92988 19.3377H5.42988ZM37.3454 33.8758C37.3454 33.2028 37.5921 32.5532 38.0387 32.0498L39.1607 33.0454C38.9576 33.2743 38.8454 33.5698 38.8454 33.8758H37.3454ZM5.65517 17.6443C5.50063 17.7005 5.42988 17.8271 5.42988 17.9258H3.92988C3.92988 17.1318 4.45824 16.4834 5.14265 16.2346L5.65517 17.6443ZM42.0605 25.4086C42.0605 28.2232 41.0289 30.9402 39.1607 33.0454L38.0387 32.0498C39.6634 30.219 40.5605 27.8563 40.5605 25.4086H42.0605Z" fill="#333336"/>
<path d="M19.4012 22.2111C19.4455 22.2909 19.4957 22.3634 19.5504 22.4294C20.1868 23.196 21.5029 24.0346 20.6394 24.5316C20.418 24.659 20.2459 24.6475 19.9904 24.6475H15.765C14.4678 24.6475 13.6868 21.5182 15.5517 20.8954C18.8878 19.7813 18.9139 21.334 19.4012 22.2111Z" stroke="#333336" stroke-width="1.5"/>
</svg>
