<svg width="50" height="50" viewBox="0 0 50 50" fill="none" xmlns="http://www.w3.org/2000/svg">
<rect width="50" height="50" />
<path d="M23.9355 25.7592L19.1369 17.9171L16.2146 19.6043L18.3115 23.5097" stroke="#333336" stroke-width="1.5" stroke-linecap="round" stroke-linejoin="round"/>
<path d="M23.9355 25.7592L22.144 20.3256L25.4034 19.4522L26.7475 24.072" stroke="#333336" stroke-width="1.5" stroke-linecap="round" stroke-linejoin="round"/>
<path d="M17.1869 25.7591L16.6992 24.9479L19.7562 23.5195L21.1236 25.7591" stroke="#333336" stroke-width="1.5" stroke-linecap="round" stroke-linejoin="round"/>
<path d="M29.5616 25.7592L30.6134 23.418L27.354 22.5446L26.1854 25.7592" stroke="#333336" stroke-width="1.5" stroke-linecap="round" stroke-linejoin="round"/>
<path d="M24.217 35.3006C25.4005 35.3006 26.5723 35.0675 27.6657 34.6146C28.759 34.1617 29.7525 33.4979 30.5893 32.6611C31.3249 31.9255 31.9268 31.0688 32.3693 30.1296M28.2723 42.0594H20.1617M35.9323 29.8935H12.5018M36.8335 26.2888C36.8335 29.6349 35.5042 32.8439 33.1382 35.21C30.7722 37.576 27.5631 38.9053 24.217 38.9053C20.8709 38.9053 17.6619 37.576 15.2959 35.21C12.9298 32.8439 11.6006 29.6349 11.6006 26.2888L36.8335 26.2888Z" stroke="#333336" stroke-width="1.5" stroke-linecap="round" stroke-linejoin="round"/>
<path d="M28.3956 6.25097L29.0159 6.72992C29.8902 7.405 30.0516 8.661 29.3766 9.53526L28.4187 10.7758C27.7436 11.6501 27.905 12.9061 28.7793 13.5811L29.0848 13.817" stroke="#333336" stroke-width="1.5" stroke-linecap="round" stroke-linejoin="round"/>
<path d="M23.5231 6.25097L24.1433 6.72992C25.0176 7.405 25.1791 8.661 24.504 9.53526L23.5461 10.7758C22.871 11.6501 23.0325 12.9061 23.9067 13.5811L24.2123 13.817" stroke="#333336" stroke-width="1.5" stroke-linecap="round" stroke-linejoin="round"/>
<path d="M18.6505 6.25097L19.2708 6.72992C20.1451 7.405 20.3065 8.661 19.6314 9.53526L18.6735 10.7758C17.9985 11.6501 18.1599 12.9061 19.0342 13.5811L19.3397 13.817" stroke="#333336" stroke-width="1.5" stroke-linecap="round" stroke-linejoin="round"/>
</svg>
