<svg width="50" height="50" viewBox="0 0 50 50" fill="none" xmlns="http://www.w3.org/2000/svg">
<rect width="50" height="50"/>
<path d="M28.9279 9.97062L29.671 10.5445C30.5453 11.2195 30.7067 12.4755 30.0317 13.3498L28.884 14.8361C28.2089 15.7104 28.3704 16.9663 29.2446 17.6414L29.6555 17.9587" stroke="#333336" stroke-width="1.5" stroke-linecap="round" stroke-linejoin="round"/>
<path d="M23.7838 9.97062L24.527 10.5445C25.4012 11.2195 25.5627 12.4755 24.8876 13.3498L23.7399 14.8361C23.0649 15.7104 23.2263 16.9663 24.1006 17.6414L24.5114 17.9587" stroke="#333336" stroke-width="1.5" stroke-linecap="round" stroke-linejoin="round"/>
<path d="M18.6393 9.97062L19.3824 10.5445C20.2567 11.2195 20.4182 12.4755 19.7431 13.3498L18.5954 14.8361C17.9203 15.7104 18.0818 16.9663 18.9561 17.6414L19.3669 17.9587" stroke="#333336" stroke-width="1.5" stroke-linecap="round" stroke-linejoin="round"/>
<path d="M34.6875 38.7674H13.3125" stroke="#333336" stroke-width="1.5" stroke-linecap="round" stroke-linejoin="round"/>
<path d="M5 31.6424L43 31.6424L42.3664 32.276C40.4911 34.1513 37.9475 35.2049 35.2954 35.2049H12.7046C10.0525 35.2049 7.50893 34.1513 5.63357 32.276L5 31.6424Z" stroke="#333336" stroke-width="1.5" stroke-linecap="round" stroke-linejoin="round"/>
<path d="M19.25 25.7049H28.75L27.5625 31.6424H20.4375L19.25 25.7049Z" stroke="#333336" stroke-width="1.5" stroke-linecap="round" stroke-linejoin="round"/>
<path d="M28.75 25.7049C28.75 25.2371 28.6271 24.7738 28.3884 24.3416C28.1497 23.9094 27.7998 23.5166 27.3588 23.1858C26.9177 22.855 26.394 22.5926 25.8177 22.4136C25.2414 22.2345 24.6238 22.1424 24 22.1424C23.3762 22.1424 22.7586 22.2345 22.1823 22.4136C21.606 22.5926 21.0823 22.855 20.6412 23.1858C20.2002 23.5166 19.8503 23.9094 19.6116 24.3416C19.3729 24.7738 19.25 25.2371 19.25 25.7049" stroke="#333336" stroke-width="1.5" stroke-linecap="round" stroke-linejoin="round"/>
</svg>
