<svg width="50" height="50" viewBox="0 0 50 50" fill="none" xmlns="http://www.w3.org/2000/svg">
<path d="M29.7399 41.4409H20.2603" stroke="#333336" stroke-width="1.5" stroke-linecap="round" stroke-linejoin="round"/>
<path d="M37.9338 27.2215L36.4339 33.9707C35.9255 36.2584 33.8965 37.8861 31.553 37.8861H18.2455C15.902 37.8861 13.873 36.2584 13.3646 33.9707L11.8647 27.2215" stroke="#333336" stroke-width="1.5"/>
<path d="M13.6885 17.6643C14.2989 16.2193 15.1863 14.8908 16.317 13.76C17.9271 12.15 19.9383 11.0338 22.1157 10.5077C19.9392 11.034 17.9288 12.1505 16.3193 13.76C15.1886 14.8908 14.3012 16.2193 13.6908 17.6643L13.2541 18.5931C13.1183 18.8819 12.7788 19.0067 12.4711 18.9222C12.114 18.8241 11.7381 18.7718 11.3499 18.7718C9.01653 18.7718 7.125 20.6633 7.125 22.9966C7.125 25.33 9.01653 27.2215 11.3499 27.2215H38.6501C40.9834 27.2215 42.8749 25.33 42.8749 22.9966C42.8749 20.6633 40.9834 18.7718 38.6501 18.7718C38.2306 18.7718 37.8255 18.8329 37.443 18.9467C37.1849 19.0235 36.8984 18.9176 36.7839 18.6739L36.3092 17.6643C35.6988 16.2193 34.8114 14.8908 33.6807 13.76C32.0997 12.1791 30.1321 11.0732 28 10.5357C30.1329 11.073 32.1014 12.1785 33.6829 13.76C34.8137 14.8908 35.701 16.2193 36.3114 17.6643" stroke="#333336" stroke-width="1.5"/>
<circle cx="25" cy="10" r="3" stroke="#333336" stroke-width="1.5"/>
<circle cx="20" cy="20" r="1" fill="#333336"/>
<circle cx="24.9922" cy="20" r="1" fill="#333336"/>
<circle cx="29.9844" cy="20" r="1" fill="#333336"/>
</svg>
