<svg width="50" height="50" viewBox="0 0 50 50" fill="none" xmlns="http://www.w3.org/2000/svg">
<path d="M13.744 17.5182L25.0883 42.0112L36.4326 17.5182" stroke="#333336" stroke-width="1.5" stroke-linejoin="round"/>
<path d="M24.9998 9.75711C29.9174 9.75711 34.6591 11.4474 38.4338 14.6871C39.3609 15.4829 39.3422 16.8859 38.4906 17.7619C37.6985 18.5767 36.4001 18.5768 35.5058 17.8758C32.5185 15.5342 28.8631 14.2497 24.9998 14.2497C21.135 14.2497 17.3305 15.5352 14.2976 17.8785C13.4058 18.5675 12.1099 18.543 11.3538 17.7072C10.5814 16.8535 10.5871 15.5386 11.4554 14.7826C15.2478 11.4805 20.0341 9.75711 24.9998 9.75711Z" stroke="#333336" stroke-width="1.5"/>
<circle cx="28.4858" cy="19.502" r="1.75" stroke="#333336" stroke-width="1.5"/>
<circle cx="20.9771" cy="22.1875" r="1.75" stroke="#333336" stroke-width="1.5"/>
<circle cx="25.2129" cy="31.75" r="1.75" stroke="#333336" stroke-width="1.5"/>
<path d="M33.1278 24.2839L31.7095 23.5912" stroke="#333336" stroke-width="1.5" stroke-linecap="round" stroke-linejoin="round"/>
<path d="M28.0927 26.2523L25.8335 25" stroke="#333336" stroke-width="1.5" stroke-linecap="round" stroke-linejoin="round"/>
<path d="M19.5407 28.7974L20.9771 27.7973" stroke="#333336" stroke-width="1.5" stroke-linecap="round" stroke-linejoin="round"/>
<circle cx="33.7729" cy="14.1539" r="0.875" fill="#333336"/>
</svg>
