<svg width="21" height="20" viewBox="0 0 21 20" fill="none" xmlns="http://www.w3.org/2000/svg">
<path d="M10.541 0C8.56321 0 6.62981 0.58649 4.98532 1.6853C3.34083 2.78412 2.0591 4.3459 1.30222 6.17317C0.545348 8.00043 0.347315 10.0111 0.733167 11.9509C1.11902 13.8907 2.07143 15.6725 3.46995 17.0711C4.86848 18.4696 6.65031 19.422 8.59012 19.8079C10.5299 20.1937 12.5406 19.9957 14.3679 19.2388C16.1951 18.4819 17.7569 17.2002 18.8557 15.5557C19.9545 13.9112 20.541 11.9778 20.541 10C20.5381 7.34874 19.4836 4.8069 17.6088 2.93218C15.7341 1.05745 13.1923 0.00293801 10.541 0ZM10.541 18C8.95877 18 7.41205 17.5308 6.09646 16.6518C4.78086 15.7727 3.75549 14.5233 3.14998 13.0615C2.54448 11.5997 2.38606 9.99113 2.69474 8.43928C3.00342 6.88743 3.76535 5.46197 4.88417 4.34315C6.00299 3.22433 7.42845 2.4624 8.9803 2.15372C10.5321 1.84504 12.1407 2.00346 13.6025 2.60896C15.0643 3.21447 16.3137 4.23984 17.1928 5.55544C18.0718 6.87103 18.541 8.41775 18.541 10C18.5386 12.121 17.695 14.1544 16.1952 15.6542C14.6954 17.1539 12.662 17.9976 10.541 18ZM11.541 9.5859L14.248 12.293L12.834 13.707L9.83402 10.707C9.64647 10.5195 9.54108 10.2652 9.54102 10V6H11.541V9.5859Z" fill="#FCD561"/>
</svg>
