<svg width="23" height="22" viewBox="0 0 23 22" fill="none" xmlns="http://www.w3.org/2000/svg">
<g clip-path="url(#clip0)">
<path fill-rule="evenodd" clip-rule="evenodd" d="M11.5 0C8.51228 0 8.13828 0.0122222 6.96494 0.066C5.79406 0.119778 4.99411 0.305556 4.29439 0.5775C3.56045 0.853684 2.89559 1.28664 2.34617 1.84617C1.78674 2.39568 1.35381 3.06051 1.0775 3.79439C0.805556 4.49411 0.619167 5.29406 0.566 6.46556C0.512833 7.63828 0.5 8.01167 0.5 11C0.5 13.9883 0.512222 14.3617 0.566 15.5351C0.619778 16.7059 0.805556 17.5059 1.0775 18.2056C1.35368 18.9395 1.78664 19.6044 2.34617 20.1538C2.95728 20.7649 3.57144 21.1414 4.29439 21.4225C4.99411 21.6944 5.79406 21.8808 6.96494 21.934C8.13828 21.9872 8.51228 22 11.5 22C14.4877 22 14.8617 21.9878 16.0351 21.934C17.2059 21.8802 18.0059 21.6944 18.7056 21.4225C19.4395 21.1463 20.1044 20.7133 20.6538 20.1538C21.2649 19.5427 21.6414 18.9286 21.9225 18.2056C22.1944 17.5059 22.3808 16.7059 22.434 15.5351C22.4872 14.3617 22.5 13.9877 22.5 11C22.5 8.01228 22.4878 7.63828 22.434 6.46494C22.3802 5.29406 22.1944 4.49411 21.9225 3.79439C21.6463 3.06046 21.2133 2.3956 20.6538 1.84617C20.1043 1.28674 19.4395 0.853807 18.7056 0.5775C18.0059 0.305556 17.2059 0.119167 16.0344 0.066C14.8617 0.0128333 14.4883 0 11.5 0ZM11.5 1.98183C14.437 1.98183 14.7853 1.99344 15.9452 2.046C17.0177 2.09489 17.6001 2.27394 17.9876 2.42489C18.5009 2.62411 18.8676 2.86306 19.2526 3.24744C19.6376 3.63244 19.8759 3.99911 20.0751 4.51244C20.2261 4.89989 20.4051 5.48228 20.454 6.55478C20.5066 7.71467 20.5182 8.063 20.5182 11C20.5182 13.937 20.5066 14.2853 20.454 15.4452C20.4051 16.5177 20.2261 17.1001 20.0751 17.4876C19.8989 17.9654 19.6178 18.3977 19.2526 18.7526C18.8676 19.1376 18.5009 19.3759 17.9876 19.5751C17.6001 19.7261 17.0177 19.9051 15.9452 19.954C14.7853 20.0066 14.4376 20.0182 11.5 20.0182C8.56239 20.0182 8.21467 20.0066 7.05478 19.954C5.98228 19.9051 5.39989 19.7261 5.01244 19.5751C4.53461 19.3989 4.10234 19.1178 3.74744 18.7526C3.38219 18.3976 3.10111 17.9654 2.92489 17.4876C2.77394 17.1001 2.59489 16.5177 2.546 15.4452C2.49344 14.2853 2.48183 13.937 2.48183 11C2.48183 8.063 2.49344 7.71467 2.546 6.55478C2.59489 5.48228 2.77394 4.89989 2.92489 4.51244C3.12411 3.99911 3.36306 3.63244 3.74744 3.24744C4.13244 2.86244 4.49911 2.62411 5.01244 2.42489C5.39989 2.27394 5.98228 2.09489 7.05478 2.046C8.21467 1.99344 8.563 1.98183 11.5 1.98183Z" fill="#333336"/>
<path fill-rule="evenodd" clip-rule="evenodd" d="M11.4997 14.6703C11.0177 14.6703 10.5404 14.5754 10.0951 14.3909C9.64982 14.2065 9.24521 13.9361 8.90438 13.5953C8.56356 13.2545 8.29321 12.8499 8.10876 12.4046C7.92431 11.9593 7.82937 11.482 7.82937 11C7.82937 10.518 7.92431 10.0407 8.10876 9.59542C8.29321 9.15012 8.56356 8.7455 8.90438 8.40468C9.24521 8.06386 9.64982 7.7935 10.0951 7.60905C10.5404 7.4246 11.0177 7.32966 11.4997 7.32966C12.4731 7.32966 13.4067 7.71636 14.095 8.40468C14.7833 9.093 15.17 10.0266 15.17 11C15.17 11.9734 14.7833 12.907 14.095 13.5953C13.4067 14.2836 12.4731 14.6703 11.4997 14.6703ZM11.4997 5.346C10.0002 5.346 8.56205 5.94168 7.50172 7.00201C6.44139 8.06234 5.8457 9.50046 5.8457 11C5.8457 12.4995 6.44139 13.9376 7.50172 14.998C8.56205 16.0583 10.0002 16.654 11.4997 16.654C12.9992 16.654 14.4374 16.0583 15.4977 14.998C16.558 13.9376 17.1537 12.4995 17.1537 11C17.1537 9.50046 16.558 8.06234 15.4977 7.00201C14.4374 5.94168 12.9992 5.346 11.4997 5.346ZM18.7988 5.24333C18.7988 5.59779 18.658 5.93774 18.4074 6.18838C18.1567 6.43902 17.8168 6.57983 17.4623 6.57983C17.1078 6.57983 16.7679 6.43902 16.5173 6.18838C16.2666 5.93774 16.1258 5.59779 16.1258 5.24333C16.1258 4.88887 16.2666 4.54892 16.5173 4.29828C16.7679 4.04764 17.1078 3.90683 17.4623 3.90683C17.8168 3.90683 18.1567 4.04764 18.4074 4.29828C18.658 4.54892 18.7988 4.88887 18.7988 5.24333Z" fill="#333336"/>
</g>
<defs>
<clipPath id="clip0">
<rect x="0.5" width="22" height="22" fill="white"/>
</clipPath>
</defs>
</svg>
