<svg width="23" height="22" viewBox="0 0 23 22" fill="none" xmlns="http://www.w3.org/2000/svg">
<g clip-path="url(#clip0)">
<path fill-rule="evenodd" clip-rule="evenodd" d="M22.5452 11.0672C22.5452 4.95496 17.6002 0 11.5002 0C5.40013 0 0.455078 4.95496 0.455078 11.0672C0.455078 16.5912 4.4941 21.1697 9.77437 22V14.2663H6.96995V11.0672H9.77437V8.62898C9.77437 5.85525 11.4233 4.32313 13.9463 4.32313C15.1547 4.32313 16.4187 4.53929 16.4187 4.53929V7.26287H15.0259C13.6538 7.26287 13.226 8.11597 13.226 8.99119V11.0672H16.2892L15.7995 14.2663H13.226V22C18.5062 21.1697 22.5452 16.5912 22.5452 11.0672Z" fill="#333336"/>
</g>
<defs>
<clipPath id="clip0">
<rect x="0.455078" width="22.0902" height="22" fill="white"/>
</clipPath>
</defs>
</svg>
